=
2
3
4
=
=
2
2
2
8
2
2
2
2
=
=
2
2
2
2
2
2
2
2
2
3
4
2
2
2
2
2
=
34
2
2
2
2
2
3
3
3
3
3
2
2
2
2
49
50
51
2
2
52
53
54
2
2
2
2
2
2
2
2
2
2
2
2
2
2
2
2
2
2
2
2
2
2
2
2
