.S.SSSSSSSS.SSSSSSSS.SSS..SSS.SS.......SSS..SSS.SSSS....SSSS............SSSSSSSS
.M..............MMMM.MMM...............M....MMM.............................MMMM m
..........................................DD............................DDDD.... d
..................LL............................................................ l
................................................GGGGGGGGGGGGGGGGGGGGGGGG........ g
...........F............F......................F...F.F..............FFFF........ f
..=*---====-=---....*...--==*=-.*******.-.**...-====================----****....  force
0         1         2         3         4         5         6	      7        ^
01234567890123456789012345678901234567890123456789012345678901234567890123456789
