.SSSS.SSSSS.SSSS...S.S...SSS....S.SSS.......SSSSSSSSSSSSSSSSSSSSSSSSSSSSSSSSSSSS
.MMMM.........MM..........M........MM.......MMMM...MM...........MMMMMMMMMMMMMMMM m
................................................DDD..DDD........................ d
..............LL................................................................ l
............GG..GGGGGGGGG...GGGG........GGGG............GGGGGGGG................ g
.........................F....F........F...F.................................... f
.....*--------..=**=*=**=-..====*==..---====....***..***------==................ force
0         1         2         3         4         5         6	      7        ^
01234567890123456789012345678901234567890123456789012345678901234567890123456789
